[
  "Ten",
  "eleven",
  "twelve",
  "sixteen",
  "zero",
  "one",
  "two",
  "three",
  "four",
  "five",
  "six",
  "Seven",
  "eight",
  "new",
  "accountant",
  "pain",
  "acorn",
  "actor",
  "horn",
  "alarm clock",
  "alligator",
  "alphabet",
  "anchor",
  "angel",
  "angry",
  "animals",
  "anchor",
  "ant",
  "ant",
  "antelope",
  "apple",
  "apple",
  "apparatus",
  "apricot",
  "arm",
  "chair",
  "artichoke",
  "artist",
  "asparagus",
  "astronaut",
  "eat",
  "athlete",
  "lawyer",
  "ax",
  "bottle",
  "back",
  "decoration",
  "bag",
  "bait",
  "cook",
  "balance",
  "bald",
  "ball",
  "ball",
  "football",
  "ballet",
  "bank",
  "bark",
  "barn",
  "mouse",
  "bath",
  "shirt",
  "bay",
  "beach",
  "bubble",
  "bean",
  "bear",
  "beard",
  "fight",
  "beaver",
  "bed",
  "bedroom",
  "bee",
  "beef",
  "beetle",
  "supplier",
  "behind",
  "bell",
  "belly",
  "bench",
  "bib",
  "big",
  "big",
  "bicycle",
  "bird",
  "track",
  "bite",
  "black",
  "mature",
  "blackbird",
  "blade",
  "blind",
  "blink",
  "block",
  "blonde",
  "blue",
  "blueberry",
  "blush",
  "board",
  "boat",
  "boil",
  "bolt",
  "bomb",
  "bone",
  "book",
  "library",
  "behind",
  "box",
  "boxer",
  "boy",
  "tress e",
  "brain",
  "branch",
  "bread",
  "break",
  "breast",
  "brick",
  "bricklayer",
  "bride",
  "bridge",
  "brilliant",
  "broccoli",
  "brother",
  "brown",
  "brush",
  "bubble",
  "bucket",
  "bud",
  "buffalo",
  "insect",
  "bulb",
  "bull",
  "humpback",
  "cake",
  "bus",
  "bush",
  "butcher",
  "butter",
  "butterfly",
  "button",
  "cabbage",
  "cabin",
  "cocoa",
  "cactus",
  "cage",
  "cake",
  "call",
  "camel",
  "photo",
  "camping",
  "retain",
  "canary",
  "candle",
  "candy",
  "cane",
  "canoe",
  "barrel",
  "canyon",
  "cap",
  "cape",
  "car",
  "pitcher",
  "card",
  "carnival",
  "carpenter",
  "carpet",
  "carrot",
  "supermarket",
  "silver",
  "castle",
  "cat",
  "cat",
  "catch",
  "caterpillar",
  "pot",
  "flower",
  "cave",
  "cave",
  "celery",
  "tabs",
  "grain",
  "channel",
  "chair",
  "chalk",
  "chameleon",
  "luster",
  "discuss",
  "play",
  "encourage",
  "cheese",
  "cooking",
  "cherry",
  "safe",
  "chick",
  "chicken",
  "Indian",
  "child",
  "chimney",
  "chimpanzee",
  "chin",
  "chocolate",
  "cut",
  "household",
  "christmas",
  "cigar",
  "circus",
  "city",
  "clam",
  "type",
  "class",
  "claw",
  "clay",
  "wash",
  "cleaning",
  "cliff",
  "es calader",
  "alarm clock",
  "cloth",
  "arch",
  "cloud",
  "Rain",
  "clover",
  "clown",
  "trainer",
  "coast",
  "coat",
  "cobra",
  "coconut",
  "cod",
  "coffee",
  "play",
  "cold",
  "color",
  "colt",
  "comb",
  "cone",
  "cookie",
  "cap",
  "corn",
  "sofa",
  "cough",
  "couple",
  "cow",
  "boy",
  "crab",
  "cradle",
  "manual",
  "crawl",
  "crazy",
  "stream",
  "pancake",
  "cradles",
  "criminal",
  "coasser",
  "crocodile",
  "cross",
  "raven",
  "ring",
  "crumb",
  "crust",
  "crying",
  "crystal",
  "cube",
  "cucumber",
  "curtain",
  "cut",
  "adorable",
  "dad",
  "daffodil",
  "daisy",
  "dam",
  "dance",
  "dandelion",
  "danger",
  "target",
  "date",
  "deer",
  "lair",
  "desert",
  "business",
  "dessert",
  "diamond",
  "dig",
  "soil",
  "dirty",
  "flat",
  "cloth",
  "dive",
  "Dr",
  "deer",
  "dog",
  "doll",
  "dolphin",
  "domino",
  "door",
  "mat",
  "point",
  "donut",
  "dove",
  "dragon",
  "dragonfly",
  "drink",
  "drawing",
  "spool",
  "dream",
  "dress",
  "beverage",
  "drink",
  "drop",
  "drive",
  "drool",
  "drum",
  "dry",
  "duck",
  "stick",
  "dune",
  "dwarf",
  "eagle",
  "ear",
  "Earth",
  "eat",
  "egg",
  "aubergine",
  "elbow",
  "electrician",
  "elk",
  "space",
  "engine",
  "engineer",
  "gum",
  "explorers",
  "eyelash",
  "eyes",
  "face",
  "riding",
  "fairy",
  "down",
  "autumn",
  "family",
  "fan",
  "farm",
  "farmer",
  "fat",
  "tap",
  "fawn",
  "chicken",
  "feather",
  "feed",
  "up",
  "down",
  "hip",
  "report",
  "pear",
  "fin",
  "find",
  "finger",
  "fire",
  "extinguisher",
  "firefighter",
  "fish",
  "fisherman",
  "fist",
  "bottle",
  "flag",
  "flame",
  "pink",
  "torch",
  "apartment",
  "fly",
  "theft",
  "float",
  "flour",
  "flower",
  "teddy",
  "flute",
  "fly",
  "foam",
  "hamburger",
  "walk",
  "forest",
  "range",
  "fountain",
  "fox",
  "freeze",
  "friends",
  "fried",
  "frog",
  "before",
  "fuss",
  "fruit",
  "caramel",
  "full",
  "play",
  "fur",
  "game",
  "garage",
  "garden",
  "garlic",
  "gem",
  "giant",
  "gift",
  "giraffe",
  "girl",
  "glass",
  "glasses",
  "glove",
  "adhesive",
  "gnome",
  "goat",
  "gold",
  "golf",
  "goose",
  "gorilla",
  "cob",
  "mother",
  "grape",
  "grapefruit",
  "grass",
  "falls",
  "gray",
  "green",
  "barbecue",
  "smile",
  "earth",
  "growl",
  "puppet",
  "india",
  "gum",
  "Hair",
  "Hair",
  "half",
  "ham",
  "hammer",
  "hand",
  "handle",
  "happy",
  "harp",
  "hat",
  "bloom",
  "hay",
  "head",
  "hear",
  "heat",
  "border",
  "hedgehog",
  "heel",
  "helmet",
  "poule",
  "flock",
  "top",
  "walk",
  "hill",
  "hip",
  "hippopotamus",
  "fight",
  "bee",
  "hockey",
  "hole",
  "house",
  "hook",
  "bounce",
  "horse",
  "tube",
  "hospital",
  "warm",
  "dog",
  "hunting",
  "home",
  "howl",
  "hug",
  "huge",
  "hummingbird",
  "hunchback",
  "hunter",
  "husband",
  "hut",
  "hyena",
  "ice",
  "iceberg",
  "iguana",
  "sick",
  "ink",
  "island",
  "jacket",
  "jaguar",
  "jam",
  "jay",
  "jelly",
  "Medusa",
  "jewel",
  "work",
  "jockey",
  "jogger",
  "judge",
  "judoka",
  "juggler",
  "juice",
  "jump",
  "kangaroo",
  "keel",
  "kernel",
  "keyboard",
  "kimono",
  "King",
  "fuck",
  "kitchen",
  "wheel",
  "kitten",
  "kiwi",
  "knee",
  "kneel",
  "knife",
  "knight",
  "knit",
  "knot",
  "koala",
  "boy",
  "lady",
  "ladybug",
  "lake",
  "lama",
  "lamb",
  "light",
  "field",
  "path",
  "lasso",
  "laugh",
  "washing",
  "lawn",
  "lawyer",
  "leaf",
  "edge",
  "leek",
  "left",
  "leg",
  "leg",
  "lemon",
  "lemonade",
  "lemur",
  "leopard",
  "lettuce",
  "Library cairo",
  "licking",
  "cover",
  "raise",
  "light",
  "lighthouse",
  "lightning",
  "purple",
  "green"
]
